%YAML 1.1
%TAG !u! tag:unity3d.com,2011:
--- !u!114 &-4888845633797791449
MonoBehaviour:
  m_ObjectHideFlags: 0
  m_CorrespondingSourceObject: {fileID: 0}
  m_PrefabInstance: {fileID: 0}
  m_PrefabAsset: {fileID: 0}
  m_GameObject: {fileID: 8007624365043193138}
  m_Enabled: 1
  m_EditorHideFlags: 0
  m_Script: {fileID: 11500000, guid: 17952359ad0d40638d7148f4d1ec0cb5, type: 3}
  m_Name: 
  m_EditorClassIdentifier: 
  type: 2
  speed: 2
--- !u!1001 &7398283670325058045
PrefabInstance:
  m_ObjectHideFlags: 0
  serializedVersion: 2
  m_Modification:
    m_TransformParent: {fileID: 0}
    m_Modifications:
    - target: {fileID: 687696298885106895, guid: 1a50309613ce0354eb89a4178727300c,
        type: 3}
      propertyPath: m_Name
      value: weaponPickup
      objectReference: {fileID: 0}
    - target: {fileID: 687696298885106881, guid: 1a50309613ce0354eb89a4178727300c,
        type: 3}
      propertyPath: m_LocalPosition.x
      value: 0
      objectReference: {fileID: 0}
    - target: {fileID: 687696298885106881, guid: 1a50309613ce0354eb89a4178727300c,
        type: 3}
      propertyPath: m_LocalPosition.y
      value: 0
      objectReference: {fileID: 0}
    - target: {fileID: 687696298885106881, guid: 1a50309613ce0354eb89a4178727300c,
        type: 3}
      propertyPath: m_LocalPosition.z
      value: 0
      objectReference: {fileID: 0}
    - target: {fileID: 687696298885106881, guid: 1a50309613ce0354eb89a4178727300c,
        type: 3}
      propertyPath: m_LocalRotation.x
      value: -0
      objectReference: {fileID: 0}
    - target: {fileID: 687696298885106881, guid: 1a50309613ce0354eb89a4178727300c,
        type: 3}
      propertyPath: m_LocalRotation.y
      value: -0
      objectReference: {fileID: 0}
    - target: {fileID: 687696298885106881, guid: 1a50309613ce0354eb89a4178727300c,
        type: 3}
      propertyPath: m_LocalRotation.z
      value: -0
      objectReference: {fileID: 0}
    - target: {fileID: 687696298885106881, guid: 1a50309613ce0354eb89a4178727300c,
        type: 3}
      propertyPath: m_LocalRotation.w
      value: 1
      objectReference: {fileID: 0}
    - target: {fileID: 687696298885106881, guid: 1a50309613ce0354eb89a4178727300c,
        type: 3}
      propertyPath: m_RootOrder
      value: 0
      objectReference: {fileID: 0}
    - target: {fileID: 687696298885106881, guid: 1a50309613ce0354eb89a4178727300c,
        type: 3}
      propertyPath: m_LocalEulerAnglesHint.x
      value: 0
      objectReference: {fileID: 0}
    - target: {fileID: 687696298885106881, guid: 1a50309613ce0354eb89a4178727300c,
        type: 3}
      propertyPath: m_LocalEulerAnglesHint.y
      value: 0
      objectReference: {fileID: 0}
    - target: {fileID: 687696298885106881, guid: 1a50309613ce0354eb89a4178727300c,
        type: 3}
      propertyPath: m_LocalEulerAnglesHint.z
      value: 0
      objectReference: {fileID: 0}
    - target: {fileID: 687696298088780570, guid: 1a50309613ce0354eb89a4178727300c,
        type: 3}
      propertyPath: m_Sprite
      value: 
      objectReference: {fileID: 21300000, guid: 6df6c3048338f8f4ba5f6cb69a35163c,
        type: 3}
    m_RemovedComponents:
    - {fileID: -2405968771903096126, guid: 1a50309613ce0354eb89a4178727300c, type: 3}
  m_SourcePrefab: {fileID: 100100000, guid: 1a50309613ce0354eb89a4178727300c, type: 3}
--- !u!1 &8007624365043193138 stripped
GameObject:
  m_CorrespondingSourceObject: {fileID: 687696298885106895, guid: 1a50309613ce0354eb89a4178727300c,
    type: 3}
  m_PrefabInstance: {fileID: 7398283670325058045}
  m_PrefabAsset: {fileID: 0}
